Bytreand/Bytreand/Tests/dotprod/gnu/t_dotprod.vcd
$date
  Wed Feb 22 12:22:35 2017
$end
$version
  GHDL v0
$end
$timescale
  1 fs
$end
$var reg 1 ! \clear\ $end
$var reg 1 " \clk\ $end
$var reg 1 # \done\ $end
$var reg 1 $ \init\ $end
$var reg 1 % \reset\ $end
$var reg 32 & \sum\[31:0] $end
$scope module uut $end
$var reg 1 ' \clear\ $end
$var reg 1 ( \clk\ $end
$var reg 1 ) \done\ $end
$var reg 1 * \init\ $end
$var reg 1 + \reset\ $end
$var reg 32 , \sum\[31:0] $end
$var reg 16 - s0[15:0] $end
$var reg 1 . s13 $end
$var reg 1 / s11 $end
$var reg 1 0 s14[0:0] $end
$var reg 1 1 s10 $end
$var reg 1 2 s12[0:0] $end
$var reg 32 3 s7[31:0] $end
$var reg 32 4 s9[31:0] $end
$var reg 32 5 s5[31:0] $end
$var reg 16 6 s3[15:0] $end
$var reg 16 7 s1[15:0] $end
$var reg 32 8 s4[31:0] $end
$scope module \c14\ $end
$var reg 1 9 a[0:0] $end
$var reg 1 : clk $end
$var reg 1 ; reset $end
$var reg 1 < a_delayed[0:0] $end
$comment int is not handled $end
$upscope $end
$scope module \c13\ $end
$var reg 1 = a[0:0] $end
$var reg 1 > clk $end
$var reg 1 ? reset $end
$var reg 1 @ a_delayed[0:0] $end
$comment int is not handled $end
$upscope $end
$scope module \x_mult_op_s_y\ $end
$var reg 32 A i0[31:0] $end
$var reg 32 B i1[31:0] $end
$var reg 32 C o0[31:0] $end
$upscope $end
$scope module \acc\ $end
$var reg 1 D clk $end
$var reg 1 E reset $end
$var reg 1 F we $end
$var reg 1 G sel1[0:0] $end
$var reg 32 H i0[31:0] $end
$var reg 32 I i1[31:0] $end
$var reg 32 J o0[31:0] $end
$upscope $end
$scope module \x\ $end
$var reg 32 K data_in[31:0] $end
$var reg 11 L address[10:0] $end
$var reg 1 M we $end
$var reg 1 N oe $end
$var reg 1 O clk $end
$var reg 32 P data_out[31:0] $end
$var reg 11 Q read_a[10:0] $end
$comment ram is not handled $end
$upscope $end
$scope module \y\ $end
$var reg 32 R data_in[31:0] $end
$var reg 11 S address[10:0] $end
$var reg 1 T we $end
$var reg 1 U oe $end
$var reg 1 V clk $end
$var reg 32 W data_out[31:0] $end
$var reg 11 X read_a[10:0] $end
$comment ram is not handled $end
$upscope $end
$scope module \i\ $end
$var reg 16 Y input[15:0] $end
$var reg 16 Z termination[15:0] $end
$var reg 1 [ clk $end
$var reg 1 \ clk_en $end
$var reg 1 ] reset $end
$var reg 1 ^ load $end
$var reg 1 _ step $end
$var reg 1 ` done $end
$var reg 16 a output[15:0] $end
$var reg 1 b shsteps[0:0] $end
$var reg 16 c value[15:0] $end
$var reg 1 d init $end
$var reg 1 e stepi $end
$var reg 1 f cond $end
$upscope $end
$upscope $end
$enddefinitions $end
#0
0!
0"
0#
0$
1%
b00000000000000000000000000000000 &
0'
0(
0)
0*
1+
b00000000000000000000000000000000 ,
b0000000000000000 -
0.
0/
b0 0
01
b0 2
bXXXXXXXXXXXXXXXXXXXXXXXXXXXXXXXX 3
b00000000000000000000000000000000 4
bUUUUUUUUUUUUUUUUUUUUUUUUUUUUUUUU 5
b0000000000000000 6
b0000100000000000 7
bUUUUUUUUUUUUUUUUUUUUUUUUUUUUUUUU 8
b0 9
0:
1;
b0 <
b0 =
0>
1?
b0 @
bUUUUUUUUUUUUUUUUUUUUUUUUUUUUUUUU A
bUUUUUUUUUUUUUUUUUUUUUUUUUUUUUUUU B
bXXXXXXXXXXXXXXXXXXXXXXXXXXXXXXXX C
0D
1E
0F
b1 G
b00000000000000000000000000000000 H
bXXXXXXXXXXXXXXXXXXXXXXXXXXXXXXXX I
b00000000000000000000000000000000 J
b00000000000000000000000000000000 K
b00000000000 L
0M
1N
0O
bUUUUUUUUUUUUUUUUUUUUUUUUUUUUUUUU P
bUUUUUUUUUUU Q
b00000000000000000000000000000000 R
b00000000000 S
0T
1U
0V
bUUUUUUUUUUUUUUUUUUUUUUUUUUUUUUUU W
bUUUUUUUUUUU X
b0000000000000000 Y
b0000100000000000 Z
0[
0\
1]
0^
0_
0`
b0000000000000000 a
b1 b
b0000000000000000 c
1d
0e
1f
#5000000
1"
1(
b00000000000000000000000000000100 3
b00000000000000000000000000000100 5
b00000000000000000000000000000001 8
1:
1>
b00000000000000000000000000000001 A
b00000000000000000000000000000100 B
b00000000000000000000000000000100 C
1D
b00000000000000000000000000000100 I
1O
b00000000000000000000000000000001 P
b00000000000 Q
1V
b00000000000000000000000000000100 W
b00000000000 X
1[
#10000000
0"
0(
0:
0>
0D
0O
0V
0[
#15000000
1"
1(
1:
1>
1D
1O
1V
1[
#20000000
0"
0(
0:
0>
0D
0O
0V
0[
#25000000
1"
1(
1:
1>
1D
1O
1V
1[
#30000000
0"
0(
0:
0>
0D
0O
0V
0[
#35000000
1"
1(
1:
1>
1D
1O
1V
1[
#40000000
0"
0(
0:
0>
0D
0O
0V
0[
#45000000
1"
1(
1:
1>
1D
1O
1V
1[
#50000000
0"
0%
0(
0+
0:
0;
0>
0?
0D
0E
0O
0V
0[
0]
#55000000
1"
1(
1:
1>
1D
1O
1V
1[
#60000000
0"
0(
0:
0>
0D
0O
0V
0[
#65000000
1"
1(
1:
1>
1D
1O
1V
1[
#70000000
0"
0(
0:
0>
0D
0O
0V
0[
#75000000
1"
1(
1:
1>
1D
1O
1V
1[
#80000000
0"
0(
0:
0>
0D
0O
0V
0[
#85000000
1"
1(
1:
1>
1D
1O
1V
1[
#90000000
0"
0(
0:
0>
0D
0O
0V
0[
#95000000
1"
1(
1:
1>
1D
1O
1V
1[
#100000000
0"
1$
0(
1*
11
0:
0>
0D
0O
0V
0[
1\
#105000000
1"
1(
1.
b1 9
1:
1>
1D
1O
1V
1[
1_
0d
1e
#110000000
0"
0(
0:
0>
0D
0O
0V
0[
#115000000
1"
1(
b0000000000000001 6
1:
1>
1D
b00000000001 L
1O
b00000000001 S
1V
1[
b0000000000000001 a
b0000000000000001 c
#120000000
0"
0(
0:
0>
0D
0O
0V
0[
#125000000
1"
1(
b1 0
b0000000000000010 6
1:
b1 <
1>
1D
1F
b00000000010 L
1O
b00000000001 Q
b00000000010 S
1V
b00000000001 X
1[
b0000000000000010 a
b0000000000000010 c
#130000000
0"
0(
0:
0>
0D
0O
0V
0[
#135000000
1"
b00000000000000000000000000000100 &
1(
b00000000000000000000000000000100 ,
b00000000000000000000000000001010 3
b00000000000000000000000000000100 4
b00000000000000000000000000000101 5
b0000000000000011 6
b00000000000000000000000000000010 8
1:
1>
b00000000000000000000000000000010 A
b00000000000000000000000000000101 B
b00000000000000000000000000001010 C
1D
b00000000000000000000000000000100 H
b00000000000000000000000000001010 I
b00000000000000000000000000000100 J
b00000000011 L
1O
b00000000000000000000000000000010 P
b00000000010 Q
b00000000011 S
1V
b00000000000000000000000000000101 W
b00000000010 X
1[
b0000000000000011 a
b0000000000000011 c
#140000000
0"
0(
0:
0>
0D
0O
0V
0[
#145000000
1"
b00000000000000000000000000001110 &
1(
b00000000000000000000000000001110 ,
b00000000000000000000000000010010 3
b00000000000000000000000000001110 4
b00000000000000000000000000000110 5
b0000000000000100 6
b00000000000000000000000000000011 8
1:
1>
b00000000000000000000000000000011 A
b00000000000000000000000000000110 B
b00000000000000000000000000010010 C
1D
b00000000000000000000000000001110 H
b00000000000000000000000000010010 I
b00000000000000000000000000001110 J
b00000000100 L
1O
b00000000000000000000000000000011 P
b00000000011 Q
b00000000100 S
1V
b00000000000000000000000000000110 W
b00000000011 X
1[
b0000000000000100 a
b0000000000000100 c
#150000000
0"
0(
0:
0>
0D
0O
0V
0[
#155000000
1"
b00000000000000000000000000100000 &
1(
b00000000000000000000000000100000 ,
b00000000000000000000000000000000 3
b00000000000000000000000000100000 4
b00000000000000000000000000000000 5
b0000000000000101 6
b00000000000000000000000000000000 8
1:
1>
b00000000000000000000000000000000 A
b00000000000000000000000000000000 B
b00000000000000000000000000000000 C
1D
b00000000000000000000000000100000 H
b00000000000000000000000000000000 I
b00000000000000000000000000100000 J
b00000000101 L
1O
b00000000000000000000000000000000 P
b00000000100 Q
b00000000101 S
1V
b00000000000000000000000000000000 W
b00000000100 X
1[
b0000000000000101 a
b0000000000000101 c
#157000000
#160000000
0"
0(
0:
0>
0D
0O
0V
0[
#165000000
1"
1(
b0000000000000110 6
1:
1>
1D
b00000000110 L
1O
b00000000101 Q
b00000000110 S
1V
b00000000101 X
1[
b0000000000000110 a
b0000000000000110 c
#170000000
0"
0(
0:
0>
0D
0O
0V
0[
#175000000
1"
1(
b0000000000000111 6
1:
1>
1D
b00000000111 L
1O
b00000000110 Q
b00000000111 S
1V
b00000000110 X
1[
b0000000000000111 a
b0000000000000111 c
#180000000
0"
0(
0:
0>
0D
0O
0V
0[
#185000000
1"
1(
b0000000000001000 6
1:
1>
1D
b00000001000 L
1O
b00000000111 Q
b00000001000 S
1V
b00000000111 X
1[
b0000000000001000 a
b0000000000001000 c
#190000000
0"
0(
0:
0>
0D
0O
0V
0[
#195000000
1"
1(
b0000000000001001 6
1:
1>
1D
b00000001001 L
1O
b00000001000 Q
b00000001001 S
1V
b00000001000 X
1[
b0000000000001001 a
b0000000000001001 c
#200000000
0"
0(
0:
0>
0D
0O
0V
0[
#205000000
1"
1(
b0000000000001010 6
1:
1>
1D
b00000001010 L
1O
b00000001001 Q
b00000001010 S
1V
b00000001001 X
1[
b0000000000001010 a
b0000000000001010 c
#210000000
0"
0(
0:
0>
0D
0O
0V
0[
#215000000
1"
1(
b0000000000001011 6
1:
1>
1D
b00000001011 L
1O
b00000001010 Q
b00000001011 S
1V
b00000001010 X
1[
b0000000000001011 a
b0000000000001011 c
#220000000
0"
0(
0:
0>
0D
0O
0V
0[
#225000000
1"
1(
b0000000000001100 6
1:
1>
1D
b00000001100 L
1O
b00000001011 Q
b00000001100 S
1V
b00000001011 X
1[
b0000000000001100 a
b0000000000001100 c
#230000000
0"
0(
0:
0>
0D
0O
0V
0[
#235000000
1"
1(
b0000000000001101 6
1:
1>
1D
b00000001101 L
1O
b00000001100 Q
b00000001101 S
1V
b00000001100 X
1[
b0000000000001101 a
b0000000000001101 c
#240000000
0"
0(
0:
0>
0D
0O
0V
0[
#245000000
1"
1(
b0000000000001110 6
1:
1>
1D
b00000001110 L
1O
b00000001101 Q
b00000001110 S
1V
b00000001101 X
1[
b0000000000001110 a
b0000000000001110 c
#250000000
0"
0(
0:
0>
0D
0O
0V
0[
#255000000
1"
1(
b0000000000001111 6
1:
1>
1D
b00000001111 L
1O
b00000001110 Q
b00000001111 S
1V
b00000001110 X
1[
b0000000000001111 a
b0000000000001111 c
#260000000
0"
0(
0:
0>
0D
0O
0V
0[
#265000000
1"
1(
b0000000000010000 6
1:
1>
1D
b00000010000 L
1O
b00000001111 Q
b00000010000 S
1V
b00000001111 X
1[
b0000000000010000 a
b0000000000010000 c
#270000000
0"
0(
0:
0>
0D
0O
0V
0[
#275000000
1"
1(
b0000000000010001 6
1:
1>
1D
b00000010001 L
1O
b00000010000 Q
b00000010001 S
1V
b00000010000 X
1[
b0000000000010001 a
b0000000000010001 c
#280000000
0"
0(
0:
0>
0D
0O
0V
0[
#285000000
1"
1(
b0000000000010010 6
1:
1>
1D
b00000010010 L
1O
b00000010001 Q
b00000010010 S
1V
b00000010001 X
1[
b0000000000010010 a
b0000000000010010 c
#290000000
0"
0(
0:
0>
0D
0O
0V
0[
#295000000
1"
1(
b0000000000010011 6
1:
1>
1D
b00000010011 L
1O
b00000010010 Q
b00000010011 S
1V
b00000010010 X
1[
b0000000000010011 a
b0000000000010011 c
#300000000
0"
0(
0:
0>
0D
0O
0V
0[
#305000000
1"
1(
b0000000000010100 6
1:
1>
1D
b00000010100 L
1O
b00000010011 Q
b00000010100 S
1V
b00000010011 X
1[
b0000000000010100 a
b0000000000010100 c
#310000000
0"
0(
0:
0>
0D
0O
0V
0[
#315000000
1"
1(
b0000000000010101 6
1:
1>
1D
b00000010101 L
1O
b00000010100 Q
b00000010101 S
1V
b00000010100 X
1[
b0000000000010101 a
b0000000000010101 c
#320000000
0"
0(
0:
0>
0D
0O
0V
0[
#325000000
1"
1(
b0000000000010110 6
1:
1>
1D
b00000010110 L
1O
b00000010101 Q
b00000010110 S
1V
b00000010101 X
1[
b0000000000010110 a
b0000000000010110 c
#330000000
0"
0(
0:
0>
0D
0O
0V
0[
#335000000
1"
1(
b0000000000010111 6
1:
1>
1D
b00000010111 L
1O
b00000010110 Q
b00000010111 S
1V
b00000010110 X
1[
b0000000000010111 a
b0000000000010111 c
#340000000
0"
0(
0:
0>
0D
0O
0V
0[
#345000000
1"
1(
b0000000000011000 6
1:
1>
1D
b00000011000 L
1O
b00000010111 Q
b00000011000 S
1V
b00000010111 X
1[
b0000000000011000 a
b0000000000011000 c
#350000000
0"
0(
0:
0>
0D
0O
0V
0[
#355000000
1"
1(
b0000000000011001 6
1:
1>
1D
b00000011001 L
1O
b00000011000 Q
b00000011001 S
1V
b00000011000 X
1[
b0000000000011001 a
b0000000000011001 c
#360000000
0"
0(
0:
0>
0D
0O
0V
0[
#365000000
1"
1(
b0000000000011010 6
1:
1>
1D
b00000011010 L
1O
b00000011001 Q
b00000011010 S
1V
b00000011001 X
1[
b0000000000011010 a
b0000000000011010 c
#370000000
0"
0(
0:
0>
0D
0O
0V
0[
#375000000
1"
1(
b0000000000011011 6
1:
1>
1D
b00000011011 L
1O
b00000011010 Q
b00000011011 S
1V
b00000011010 X
1[
b0000000000011011 a
b0000000000011011 c
#380000000
0"
0(
0:
0>
0D
0O
0V
0[
#385000000
1"
1(
b0000000000011100 6
1:
1>
1D
b00000011100 L
1O
b00000011011 Q
b00000011100 S
1V
b00000011011 X
1[
b0000000000011100 a
b0000000000011100 c
#390000000
0"
0(
0:
0>
0D
0O
0V
0[
#395000000
1"
1(
b0000000000011101 6
1:
1>
1D
b00000011101 L
1O
b00000011100 Q
b00000011101 S
1V
b00000011100 X
1[
b0000000000011101 a
b0000000000011101 c
#400000000
0"
0(
0:
0>
0D
0O
0V
0[
#405000000
1"
1(
b0000000000011110 6
1:
1>
1D
b00000011110 L
1O
b00000011101 Q
b00000011110 S
1V
b00000011101 X
1[
b0000000000011110 a
b0000000000011110 c
#410000000
0"
0(
0:
0>
0D
0O
0V
0[
#415000000
1"
1(
b0000000000011111 6
1:
1>
1D
b00000011111 L
1O
b00000011110 Q
b00000011111 S
1V
b00000011110 X
1[
b0000000000011111 a
b0000000000011111 c
#420000000
0"
0(
0:
0>
0D
0O
0V
0[
#425000000
1"
1(
b0000000000100000 6
1:
1>
1D
b00000100000 L
1O
b00000011111 Q
b00000100000 S
1V
b00000011111 X
1[
b0000000000100000 a
b0000000000100000 c
#430000000
0"
0(
0:
0>
0D
0O
0V
0[
#435000000
1"
1(
b0000000000100001 6
1:
1>
1D
b00000100001 L
1O
b00000100000 Q
b00000100001 S
1V
b00000100000 X
1[
b0000000000100001 a
b0000000000100001 c
#440000000
0"
0(
0:
0>
0D
0O
0V
0[
#445000000
1"
1(
b0000000000100010 6
1:
1>
1D
b00000100010 L
1O
b00000100001 Q
b00000100010 S
1V
b00000100001 X
1[
b0000000000100010 a
b0000000000100010 c
#450000000
0"
0(
0:
0>
0D
0O
0V
0[
#455000000
1"
1(
b0000000000100011 6
1:
1>
1D
b00000100011 L
1O
b00000100010 Q
b00000100011 S
1V
b00000100010 X
1[
b0000000000100011 a
b0000000000100011 c
#460000000
0"
0(
0:
0>
0D
0O
0V
0[
#465000000
1"
1(
b0000000000100100 6
1:
1>
1D
b00000100100 L
1O
b00000100011 Q
b00000100100 S
1V
b00000100011 X
1[
b0000000000100100 a
b0000000000100100 c
#470000000
0"
0(
0:
0>
0D
0O
0V
0[
#475000000
1"
1(
b0000000000100101 6
1:
1>
1D
b00000100101 L
1O
b00000100100 Q
b00000100101 S
1V
b00000100100 X
1[
b0000000000100101 a
b0000000000100101 c
#480000000
0"
0(
0:
0>
0D
0O
0V
0[
#485000000
1"
1(
b0000000000100110 6
1:
1>
1D
b00000100110 L
1O
b00000100101 Q
b00000100110 S
1V
b00000100101 X
1[
b0000000000100110 a
b0000000000100110 c
#490000000
0"
0(
0:
0>
0D
0O
0V
0[
#495000000
1"
1(
b0000000000100111 6
1:
1>
1D
b00000100111 L
1O
b00000100110 Q
b00000100111 S
1V
b00000100110 X
1[
b0000000000100111 a
b0000000000100111 c
#500000000
0"
0(
0:
0>
0D
0O
0V
0[
#505000000
1"
1(
b0000000000101000 6
1:
1>
1D
b00000101000 L
1O
b00000100111 Q
b00000101000 S
1V
b00000100111 X
1[
b0000000000101000 a
b0000000000101000 c
#510000000
0"
0(
0:
0>
0D
0O
0V
0[
#515000000
1"
1(
b0000000000101001 6
1:
1>
1D
b00000101001 L
1O
b00000101000 Q
b00000101001 S
1V
b00000101000 X
1[
b0000000000101001 a
b0000000000101001 c
#520000000
0"
0(
0:
0>
0D
0O
0V
0[
#525000000
1"
1(
b0000000000101010 6
1:
1>
1D
b00000101010 L
1O
b00000101001 Q
b00000101010 S
1V
b00000101001 X
1[
b0000000000101010 a
b0000000000101010 c
#530000000
0"
0(
0:
0>
0D
0O
0V
0[
#535000000
1"
1(
b0000000000101011 6
1:
1>
1D
b00000101011 L
1O
b00000101010 Q
b00000101011 S
1V
b00000101010 X
1[
b0000000000101011 a
b0000000000101011 c
#540000000
0"
0(
0:
0>
0D
0O
0V
0[
#545000000
1"
1(
b0000000000101100 6
1:
1>
1D
b00000101100 L
1O
b00000101011 Q
b00000101100 S
1V
b00000101011 X
1[
b0000000000101100 a
b0000000000101100 c
#550000000
0"
0(
0:
0>
0D
0O
0V
0[
#555000000
1"
1(
b0000000000101101 6
1:
1>
1D
b00000101101 L
1O
b00000101100 Q
b00000101101 S
1V
b00000101100 X
1[
b0000000000101101 a
b0000000000101101 c
#560000000
0"
0(
0:
0>
0D
0O
0V
0[
#565000000
1"
1(
b0000000000101110 6
1:
1>
1D
b00000101110 L
1O
b00000101101 Q
b00000101110 S
1V
b00000101101 X
1[
b0000000000101110 a
b0000000000101110 c
#570000000
0"
0(
0:
0>
0D
0O
0V
0[
#575000000
1"
1(
b0000000000101111 6
1:
1>
1D
b00000101111 L
1O
b00000101110 Q
b00000101111 S
1V
b00000101110 X
1[
b0000000000101111 a
b0000000000101111 c
#580000000
0"
0(
0:
0>
0D
0O
0V
0[
#585000000
1"
1(
b0000000000110000 6
1:
1>
1D
b00000110000 L
1O
b00000101111 Q
b00000110000 S
1V
b00000101111 X
1[
b0000000000110000 a
b0000000000110000 c
#590000000
0"
0(
0:
0>
0D
0O
0V
0[
#595000000
1"
1(
b0000000000110001 6
1:
1>
1D
b00000110001 L
1O
b00000110000 Q
b00000110001 S
1V
b00000110000 X
1[
b0000000000110001 a
b0000000000110001 c
#600000000
0"
0(
0:
0>
0D
0O
0V
0[
#605000000
1"
1(
b0000000000110010 6
1:
1>
1D
b00000110010 L
1O
b00000110001 Q
b00000110010 S
1V
b00000110001 X
1[
b0000000000110010 a
b0000000000110010 c
#610000000
0"
0(
0:
0>
0D
0O
0V
0[
#615000000
1"
1(
b0000000000110011 6
1:
1>
1D
b00000110011 L
1O
b00000110010 Q
b00000110011 S
1V
b00000110010 X
1[
b0000000000110011 a
b0000000000110011 c
#620000000
0"
0(
0:
0>
0D
0O
0V
0[
#625000000
1"
1(
b0000000000110100 6
1:
1>
1D
b00000110100 L
1O
b00000110011 Q
b00000110100 S
1V
b00000110011 X
1[
b0000000000110100 a
b0000000000110100 c
#630000000
0"
0(
0:
0>
0D
0O
0V
0[
#635000000
1"
1(
b0000000000110101 6
1:
1>
1D
b00000110101 L
1O
b00000110100 Q
b00000110101 S
1V
b00000110100 X
1[
b0000000000110101 a
b0000000000110101 c
#640000000
0"
0(
0:
0>
0D
0O
0V
0[
#645000000
1"
1(
b0000000000110110 6
1:
1>
1D
b00000110110 L
1O
b00000110101 Q
b00000110110 S
1V
b00000110101 X
1[
b0000000000110110 a
b0000000000110110 c
#650000000
0"
0(
0:
0>
0D
0O
0V
0[
#655000000
1"
1(
b0000000000110111 6
1:
1>
1D
b00000110111 L
1O
b00000110110 Q
b00000110111 S
1V
b00000110110 X
1[
b0000000000110111 a
b0000000000110111 c
#660000000
0"
0(
0:
0>
0D
0O
0V
0[
#665000000
1"
1(
b0000000000111000 6
1:
1>
1D
b00000111000 L
1O
b00000110111 Q
b00000111000 S
1V
b00000110111 X
1[
b0000000000111000 a
b0000000000111000 c
#670000000
0"
0(
0:
0>
0D
0O
0V
0[
#675000000
1"
1(
b0000000000111001 6
1:
1>
1D
b00000111001 L
1O
b00000111000 Q
b00000111001 S
1V
b00000111000 X
1[
b0000000000111001 a
b0000000000111001 c
#680000000
0"
0(
0:
0>
0D
0O
0V
0[
#685000000
1"
1(
b0000000000111010 6
1:
1>
1D
b00000111010 L
1O
b00000111001 Q
b00000111010 S
1V
b00000111001 X
1[
b0000000000111010 a
b0000000000111010 c
#690000000
0"
0(
0:
0>
0D
0O
0V
0[
#695000000
1"
1(
b0000000000111011 6
1:
1>
1D
b00000111011 L
1O
b00000111010 Q
b00000111011 S
1V
b00000111010 X
1[
b0000000000111011 a
b0000000000111011 c
#700000000
0"
0(
0:
0>
0D
0O
0V
0[
#705000000
1"
1(
b0000000000111100 6
1:
1>
1D
b00000111100 L
1O
b00000111011 Q
b00000111100 S
1V
b00000111011 X
1[
b0000000000111100 a
b0000000000111100 c
#710000000
0"
0(
0:
0>
0D
0O
0V
0[
#715000000
1"
1(
b0000000000111101 6
1:
1>
1D
b00000111101 L
1O
b00000111100 Q
b00000111101 S
1V
b00000111100 X
1[
b0000000000111101 a
b0000000000111101 c
#720000000
0"
0(
0:
0>
0D
0O
0V
0[
#725000000
1"
1(
b0000000000111110 6
1:
1>
1D
b00000111110 L
1O
b00000111101 Q
b00000111110 S
1V
b00000111101 X
1[
b0000000000111110 a
b0000000000111110 c
#730000000
0"
0(
0:
0>
0D
0O
0V
0[
#735000000
1"
1(
b0000000000111111 6
1:
1>
1D
b00000111111 L
1O
b00000111110 Q
b00000111111 S
1V
b00000111110 X
1[
b0000000000111111 a
b0000000000111111 c
#740000000
0"
0(
0:
0>
0D
0O
0V
0[
#745000000
1"
1(
b0000000001000000 6
1:
1>
1D
b00001000000 L
1O
b00000111111 Q
b00001000000 S
1V
b00000111111 X
1[
b0000000001000000 a
b0000000001000000 c
#750000000
0"
0(
0:
0>
0D
0O
0V
0[
#755000000
1"
1(
b0000000001000001 6
1:
1>
1D
b00001000001 L
1O
b00001000000 Q
b00001000001 S
1V
b00001000000 X
1[
b0000000001000001 a
b0000000001000001 c
#760000000
0"
0(
0:
0>
0D
0O
0V
0[
#765000000
1"
1(
b0000000001000010 6
1:
1>
1D
b00001000010 L
1O
b00001000001 Q
b00001000010 S
1V
b00001000001 X
1[
b0000000001000010 a
b0000000001000010 c
#770000000
0"
0(
0:
0>
0D
0O
0V
0[
#775000000
1"
1(
b0000000001000011 6
1:
1>
1D
b00001000011 L
1O
b00001000010 Q
b00001000011 S
1V
b00001000010 X
1[
b0000000001000011 a
b0000000001000011 c
#780000000
0"
0(
0:
0>
0D
0O
0V
0[
#785000000
1"
1(
b0000000001000100 6
1:
1>
1D
b00001000100 L
1O
b00001000011 Q
b00001000100 S
1V
b00001000011 X
1[
b0000000001000100 a
b0000000001000100 c
#790000000
0"
0(
0:
0>
0D
0O
0V
0[
#795000000
1"
1(
b0000000001000101 6
1:
1>
1D
b00001000101 L
1O
b00001000100 Q
b00001000101 S
1V
b00001000100 X
1[
b0000000001000101 a
b0000000001000101 c
#800000000
0"
0(
0:
0>
0D
0O
0V
0[
#805000000
1"
1(
b0000000001000110 6
1:
1>
1D
b00001000110 L
1O
b00001000101 Q
b00001000110 S
1V
b00001000101 X
1[
b0000000001000110 a
b0000000001000110 c
#810000000
0"
0(
0:
0>
0D
0O
0V
0[
#815000000
1"
1(
b0000000001000111 6
1:
1>
1D
b00001000111 L
1O
b00001000110 Q
b00001000111 S
1V
b00001000110 X
1[
b0000000001000111 a
b0000000001000111 c
#820000000
0"
0(
0:
0>
0D
0O
0V
0[
#825000000
1"
1(
b0000000001001000 6
1:
1>
1D
b00001001000 L
1O
b00001000111 Q
b00001001000 S
1V
b00001000111 X
1[
b0000000001001000 a
b0000000001001000 c
#830000000
0"
0(
0:
0>
0D
0O
0V
0[
#835000000
1"
1(
b0000000001001001 6
1:
1>
1D
b00001001001 L
1O
b00001001000 Q
b00001001001 S
1V
b00001001000 X
1[
b0000000001001001 a
b0000000001001001 c
#840000000
0"
0(
0:
0>
0D
0O
0V
0[
#845000000
1"
1(
b0000000001001010 6
1:
1>
1D
b00001001010 L
1O
b00001001001 Q
b00001001010 S
1V
b00001001001 X
1[
b0000000001001010 a
b0000000001001010 c
#850000000
0"
0(
0:
0>
0D
0O
0V
0[
#855000000
1"
1(
b0000000001001011 6
1:
1>
1D
b00001001011 L
1O
b00001001010 Q
b00001001011 S
1V
b00001001010 X
1[
b0000000001001011 a
b0000000001001011 c
#860000000
0"
0(
0:
0>
0D
0O
0V
0[
#865000000
1"
1(
b0000000001001100 6
1:
1>
1D
b00001001100 L
1O
b00001001011 Q
b00001001100 S
1V
b00001001011 X
1[
b0000000001001100 a
b0000000001001100 c
#870000000
0"
0(
0:
0>
0D
0O
0V
0[
#875000000
1"
1(
b0000000001001101 6
1:
1>
1D
b00001001101 L
1O
b00001001100 Q
b00001001101 S
1V
b00001001100 X
1[
b0000000001001101 a
b0000000001001101 c
#880000000
0"
0(
0:
0>
0D
0O
0V
0[
#885000000
1"
1(
b0000000001001110 6
1:
1>
1D
b00001001110 L
1O
b00001001101 Q
b00001001110 S
1V
b00001001101 X
1[
b0000000001001110 a
b0000000001001110 c
#890000000
0"
0(
0:
0>
0D
0O
0V
0[
#895000000
1"
1(
b0000000001001111 6
1:
1>
1D
b00001001111 L
1O
b00001001110 Q
b00001001111 S
1V
b00001001110 X
1[
b0000000001001111 a
b0000000001001111 c
#900000000
0"
0(
0:
0>
0D
0O
0V
0[
#905000000
1"
1(
b0000000001010000 6
1:
1>
1D
b00001010000 L
1O
b00001001111 Q
b00001010000 S
1V
b00001001111 X
1[
b0000000001010000 a
b0000000001010000 c
#910000000
0"
0(
0:
0>
0D
0O
0V
0[
#915000000
1"
1(
b0000000001010001 6
1:
1>
1D
b00001010001 L
1O
b00001010000 Q
b00001010001 S
1V
b00001010000 X
1[
b0000000001010001 a
b0000000001010001 c
#920000000
0"
0(
0:
0>
0D
0O
0V
0[
#925000000
1"
1(
b0000000001010010 6
1:
1>
1D
b00001010010 L
1O
b00001010001 Q
b00001010010 S
1V
b00001010001 X
1[
b0000000001010010 a
b0000000001010010 c
#930000000
0"
0(
0:
0>
0D
0O
0V
0[
#935000000
1"
1(
b0000000001010011 6
1:
1>
1D
b00001010011 L
1O
b00001010010 Q
b00001010011 S
1V
b00001010010 X
1[
b0000000001010011 a
b0000000001010011 c
#940000000
0"
0(
0:
0>
0D
0O
0V
0[
#945000000
1"
1(
b0000000001010100 6
1:
1>
1D
b00001010100 L
1O
b00001010011 Q
b00001010100 S
1V
b00001010011 X
1[
b0000000001010100 a
b0000000001010100 c
#950000000
0"
0(
0:
0>
0D
0O
0V
0[
#955000000
1"
1(
b0000000001010101 6
1:
1>
1D
b00001010101 L
1O
b00001010100 Q
b00001010101 S
1V
b00001010100 X
1[
b0000000001010101 a
b0000000001010101 c
#960000000
0"
0(
0:
0>
0D
0O
0V
0[
#965000000
1"
1(
b0000000001010110 6
1:
1>
1D
b00001010110 L
1O
b00001010101 Q
b00001010110 S
1V
b00001010101 X
1[
b0000000001010110 a
b0000000001010110 c
#970000000
0"
0(
0:
0>
0D
0O
0V
0[
#975000000
1"
1(
b0000000001010111 6
1:
1>
1D
b00001010111 L
1O
b00001010110 Q
b00001010111 S
1V
b00001010110 X
1[
b0000000001010111 a
b0000000001010111 c
#980000000
0"
0(
0:
0>
0D
0O
0V
0[
#985000000
1"
1(
b0000000001011000 6
1:
1>
1D
b00001011000 L
1O
b00001010111 Q
b00001011000 S
1V
b00001010111 X
1[
b0000000001011000 a
b0000000001011000 c
#990000000
0"
0(
0:
0>
0D
0O
0V
0[
#995000000
1"
1(
b0000000001011001 6
1:
1>
1D
b00001011001 L
1O
b00001011000 Q
b00001011001 S
1V
b00001011000 X
1[
b0000000001011001 a
b0000000001011001 c
#1000000000
0"
0(
0:
0>
0D
0O
0V
0[
#1005000000
1"
1(
b0000000001011010 6
1:
1>
1D
b00001011010 L
1O
b00001011001 Q
b00001011010 S
1V
b00001011001 X
1[
b0000000001011010 a
b0000000001011010 c
#1010000000
0"
0(
0:
0>
0D
0O
0V
0[
#1015000000
1"
1(
b0000000001011011 6
1:
1>
1D
b00001011011 L
1O
b00001011010 Q
b00001011011 S
1V
b00001011010 X
1[
b0000000001011011 a
b0000000001011011 c
#1020000000
0"
0(
0:
0>
0D
0O
0V
0[
#1025000000
1"
1(
b0000000001011100 6
1:
1>
1D
b00001011100 L
1O
b00001011011 Q
b00001011100 S
1V
b00001011011 X
1[
b0000000001011100 a
b0000000001011100 c
#1030000000
0"
0(
0:
0>
0D
0O
0V
0[
#1035000000
1"
1(
b0000000001011101 6
1:
1>
1D
b00001011101 L
1O
b00001011100 Q
b00001011101 S
1V
b00001011100 X
1[
b0000000001011101 a
b0000000001011101 c
#1040000000
0"
0(
0:
0>
0D
0O
0V
0[
#1045000000
1"
1(
b0000000001011110 6
1:
1>
1D
b00001011110 L
1O
b00001011101 Q
b00001011110 S
1V
b00001011101 X
1[
b0000000001011110 a
b0000000001011110 c
#1050000000
0"
0(
0:
0>
0D
0O
0V
0[
